Gao_eco5316_HW5
…
## 10.97 sec elapsed

      results

## # A tsibble: 49 x 12 [1M]
##    index  date      E    lE    dE     dlE1  dlE12 d2lE12_1      yearm
##    <S3:> <dbl>  <dbl> <dbl> <dbl>    <dbl>  <dbl>    <dbl>      <mth>
##  1 12 ~ 16405 141326  11.9    -5 -3.54e-5 0.0217  1.78e-3  2014 12
##  2 1 2~ 16436 138511  11.8 -2815 -2.01e-2 0.0221  3.65e-4   2015 1
##  3 2 2~ 16467 139343  11.8   832  5.99e-3 0.0226  5.35e-4   2015 2
##  4 3 2~ 16495 140099  11.9   756  5.41e-3 0.0210 -1.60e-3   2015 3
##  5 4 2~ 16526 141283  11.9  1184  8.42e-3 0.0212  1.55e-4   2015 4
##  6 5 2~ 16556 142224  11.9   941  6.64e-3 0.0212  6.68e-5   2015 5
##  7 6 2~ 16587 142700  11.9   476  3.34e-3 0.0204 -8.66e-4   2015 6
##  8 7 2~ 16617 141747  11.9  -953 -6.70e-3 0.0214  1.05e-3   2015 7
##  9 8 2~ 16648 141939  11.9   192  1.35e-3 0.0200 -1.38e-3   2015 8
## 10 9 2~ 16679 142497  11.9   558  3.92e-3 0.0190 -1.00e-3   2015 9
## # ... with 39 more rows, and 3 more variables: sarima.model <list>,
## #   sarima.coefs <list>, sarima.fcst <list>
…
# actual data  
actual_tbl <-
  data.tbl %>%
  select(index, E) %>%
  mutate(key = "actual",
         date = as.Date(index)) %>%
  select(date, key, E) %>% filter(year(date) >= 2008)
actual_tbl

## # A tibble: 132 x 3
##    date       key         E
##    <date>     <chr>   <dbl>
##  1 2008-01-01 actual 136268
##  2 2008-02-01 actual 136787
##  3 2008-03-01 actual 137378
##  4 2008-04-01 actual 137914
##  5 2008-05-01 actual 138488
##  6 2008-06-01 actual 138682
##  7 2008-07-01 actual 137203
##  8 2008-08-01 actual 137094
##  9 2008-09-01 actual 137148
## 10 2008-10-01 actual 137442
## # ... with 122 more rows
…
# forecast & actual data in a single tibble    
f_a_tbl <- bind_rows(actual_tbl ,
                     PE_tbl_f_1 %>%
                       mutate(date= as.Date(yearm)) %>%
                       select(date, key, E, lo.80, lo.95, hi.80, hi.95), .id = NULL)
f_a_tbl

## # A tibble: 181 x 7
##    date       key         E lo.80 lo.95 hi.80 hi.95
##    <date>     <chr>   <dbl> <dbl> <dbl> <dbl> <dbl>
##  1 2008-01-01 actual 136268    NA    NA    NA    NA
##  2 2008-02-01 actual 136787    NA    NA    NA    NA
##  3 2008-03-01 actual 137378    NA    NA    NA    NA
##  4 2008-04-01 actual 137914    NA    NA    NA    NA
##  5 2008-05-01 actual 138488    NA    NA    NA    NA
##  6 2008-06-01 actual 138682    NA    NA    NA    NA
##  7 2008-07-01 actual 137203    NA    NA    NA    NA
##  8 2008-08-01 actual 137094    NA    NA    NA    NA
##  9 2008-09-01 actual 137148    NA    NA    NA    NA
## 10 2008-10-01 actual 137442    NA    NA    NA    NA
## # ... with 171 more rows
…
data.ts_5<- data.tbl%>%
  filter(index <= as.yearmon(lstm1)) %>%
  tk_ts(select = dE, start=fstm1, frequency = 12)  

# actual data  
actual_tbl_2 <-
  data.tbl %>%
  select(index, dE) %>%
  mutate(key = "actual",
         date = as.Date(index)) %>%
  select(date, key, dE) %>% filter(year(date) >= 2008)
actual_tbl_2

## # A tibble: 132 x 3
##    date       key       dE
##    <date>     <chr>  <dbl>
##  1 2008-01-01 actual -3029
##  2 2008-02-01 actual   519
##  3 2008-03-01 actual   591
##  4 2008-04-01 actual   536
##  5 2008-05-01 actual   574
##  6 2008-06-01 actual   194
##  7 2008-07-01 actual -1479
##  8 2008-08-01 actual  -109
##  9 2008-09-01 actual    54
## 10 2008-10-01 actual   294
## # ... with 122 more rows
…
# forecast & actual data in a single tibble    ##combine the forecasts and actual data, then we can plot them together
f_a_tbl_2 <- bind_rows(actual_tbl_2,
                       PE_tbl_f_2 %>%
                       mutate(date= as.Date(yearm)) %>%
                       select(date, key, dE, lo.80, lo.95, hi.80, hi.95), .id = NULL)
f_a_tbl_2 

## # A tibble: 181 x 7
##    date       key       dE lo.80 lo.95 hi.80 hi.95
##    <date>     <chr>  <dbl> <dbl> <dbl> <dbl> <dbl>
##  1 2008-01-01 actual -3029    NA    NA    NA    NA
##  2 2008-02-01 actual   519    NA    NA    NA    NA
##  3 2008-03-01 actual   591    NA    NA    NA    NA
##  4 2008-04-01 actual   536    NA    NA    NA    NA
##  5 2008-05-01 actual   574    NA    NA    NA    NA
##  6 2008-06-01 actual   194    NA    NA    NA    NA
##  7 2008-07-01 actual -1479    NA    NA    NA    NA
##  8 2008-08-01 actual  -109    NA    NA    NA    NA
##  9 2008-09-01 actual    54    NA    NA    NA    NA
## 10 2008-10-01 actual   294    NA    NA    NA    NA
## # ... with 171 more rows
…
